dump.vcd
$date
   Tue May 13 12:27:50 2025
$end
$version
  2019.2
$end
$timescale
  1ps
$end
$scope module tb_W_FIFO_design $end
$var reg 1 ! wr_clk $end
$var reg 1 " rd_clk $end
$var reg 1 # rst $end
$var reg 1 $ wr_en $end
$var reg 1 % rd_en $end
$var reg 1 & w_fifo_full $end
$var reg 1 ' w_fifo_empty $end
$var reg 32 ( w_data_in [31:0] $end
$var reg 4 ) w_strb_in [3:0] $end
$var reg 1 * wvalid_in $end
$var reg 1 + wready_out $end
$var reg 32 , w_data_out [31:0] $end
$var reg 4 - w_strb_out [3:0] $end
$var reg 1 . wvalid_out $end
$var reg 1 / wready_in $end
$var integer 32 0 i $end
$var wire 1 1 w_last_in $end
$var wire 1 2 w_last_out $end
$var parameter 32 3 FIFO_DEPTH [31:0] $end
$var parameter 32 4 DATA_WIDTH [31:0] $end
$var parameter 32 5 STRB_WIDTH [31:0] $end
$var parameter 32 6 FIFO_WIDTH [31:0] $end
$scope module dut $end
$var wire 1 7 FIFO_MEMORY_reg_0_63_0_2_i_1_n_0 $end
$var wire 1 8 FIFO_MEMORY_reg_0_63_0_2_n_0 $end
$var wire 1 9 FIFO_MEMORY_reg_0_63_0_2_n_1 $end
$var wire 1 : FIFO_MEMORY_reg_0_63_0_2_n_2 $end
$var wire 1 ; FIFO_MEMORY_reg_0_63_12_14_n_0 $end
$var wire 1 < FIFO_MEMORY_reg_0_63_12_14_n_1 $end
$var wire 1 = FIFO_MEMORY_reg_0_63_12_14_n_2 $end
$var wire 1 > FIFO_MEMORY_reg_0_63_15_17_n_0 $end
$var wire 1 ? FIFO_MEMORY_reg_0_63_15_17_n_1 $end
$var wire 1 @ FIFO_MEMORY_reg_0_63_15_17_n_2 $end
$var wire 1 A FIFO_MEMORY_reg_0_63_18_20_n_0 $end
$var wire 1 B FIFO_MEMORY_reg_0_63_18_20_n_1 $end
$var wire 1 C FIFO_MEMORY_reg_0_63_18_20_n_2 $end
$var wire 1 D FIFO_MEMORY_reg_0_63_21_23_n_0 $end
$var wire 1 E FIFO_MEMORY_reg_0_63_21_23_n_1 $end
$var wire 1 F FIFO_MEMORY_reg_0_63_21_23_n_2 $end
$var wire 1 G FIFO_MEMORY_reg_0_63_24_26_n_0 $end
$var wire 1 H FIFO_MEMORY_reg_0_63_24_26_n_1 $end
$var wire 1 I FIFO_MEMORY_reg_0_63_24_26_n_2 $end
$var wire 1 J FIFO_MEMORY_reg_0_63_27_29_n_0 $end
$var wire 1 K FIFO_MEMORY_reg_0_63_27_29_n_1 $end
$var wire 1 L FIFO_MEMORY_reg_0_63_27_29_n_2 $end
$var wire 1 M FIFO_MEMORY_reg_0_63_30_32_n_0 $end
$var wire 1 N FIFO_MEMORY_reg_0_63_30_32_n_1 $end
$var wire 1 O FIFO_MEMORY_reg_0_63_30_32_n_2 $end
$var wire 1 P FIFO_MEMORY_reg_0_63_33_35_n_0 $end
$var wire 1 Q FIFO_MEMORY_reg_0_63_33_35_n_1 $end
$var wire 1 R FIFO_MEMORY_reg_0_63_33_35_n_2 $end
$var wire 1 S FIFO_MEMORY_reg_0_63_36_36_n_0 $end
$var wire 1 T FIFO_MEMORY_reg_0_63_3_5_n_0 $end
$var wire 1 U FIFO_MEMORY_reg_0_63_3_5_n_1 $end
$var wire 1 V FIFO_MEMORY_reg_0_63_3_5_n_2 $end
$var wire 1 W FIFO_MEMORY_reg_0_63_6_8_n_0 $end
$var wire 1 X FIFO_MEMORY_reg_0_63_6_8_n_1 $end
$var wire 1 Y FIFO_MEMORY_reg_0_63_6_8_n_2 $end
$var wire 1 Z FIFO_MEMORY_reg_0_63_9_11_n_0 $end
$var wire 1 [ FIFO_MEMORY_reg_0_63_9_11_n_1 $end
$var wire 1 \ FIFO_MEMORY_reg_0_63_9_11_n_2 $end
$var wire 1 ] FIFO_MEMORY_reg_64_127_0_2_i_1_n_0 $end
$var wire 1 ^ FIFO_MEMORY_reg_64_127_0_2_n_0 $end
$var wire 1 _ FIFO_MEMORY_reg_64_127_0_2_n_1 $end
$var wire 1 ` FIFO_MEMORY_reg_64_127_0_2_n_2 $end
$var wire 1 a FIFO_MEMORY_reg_64_127_12_14_n_0 $end
$var wire 1 b FIFO_MEMORY_reg_64_127_12_14_n_1 $end
$var wire 1 c FIFO_MEMORY_reg_64_127_12_14_n_2 $end
$var wire 1 d FIFO_MEMORY_reg_64_127_15_17_n_0 $end
$var wire 1 e FIFO_MEMORY_reg_64_127_15_17_n_1 $end
$var wire 1 f FIFO_MEMORY_reg_64_127_15_17_n_2 $end
$var wire 1 g FIFO_MEMORY_reg_64_127_18_20_n_0 $end
$var wire 1 h FIFO_MEMORY_reg_64_127_18_20_n_1 $end
$var wire 1 i FIFO_MEMORY_reg_64_127_18_20_n_2 $end
$var wire 1 j FIFO_MEMORY_reg_64_127_21_23_n_0 $end
$var wire 1 k FIFO_MEMORY_reg_64_127_21_23_n_1 $end
$var wire 1 l FIFO_MEMORY_reg_64_127_21_23_n_2 $end
$var wire 1 m FIFO_MEMORY_reg_64_127_24_26_n_0 $end
$var wire 1 n FIFO_MEMORY_reg_64_127_24_26_n_1 $end
$var wire 1 o FIFO_MEMORY_reg_64_127_24_26_n_2 $end
$var wire 1 p FIFO_MEMORY_reg_64_127_27_29_n_0 $end
$var wire 1 q FIFO_MEMORY_reg_64_127_27_29_n_1 $end
$var wire 1 r FIFO_MEMORY_reg_64_127_27_29_n_2 $end
$var wire 1 s FIFO_MEMORY_reg_64_127_30_32_n_0 $end
$var wire 1 t FIFO_MEMORY_reg_64_127_30_32_n_1 $end
$var wire 1 u FIFO_MEMORY_reg_64_127_30_32_n_2 $end
$var wire 1 v FIFO_MEMORY_reg_64_127_33_35_n_0 $end
$var wire 1 w FIFO_MEMORY_reg_64_127_33_35_n_1 $end
$var wire 1 x FIFO_MEMORY_reg_64_127_33_35_n_2 $end
$var wire 1 y FIFO_MEMORY_reg_64_127_36_36_n_0 $end
$var wire 1 z FIFO_MEMORY_reg_64_127_3_5_n_0 $end
$var wire 1 { FIFO_MEMORY_reg_64_127_3_5_n_1 $end
$var wire 1 | FIFO_MEMORY_reg_64_127_3_5_n_2 $end
$var wire 1 } FIFO_MEMORY_reg_64_127_6_8_n_0 $end
$var wire 1 ~ FIFO_MEMORY_reg_64_127_6_8_n_1 $end
$var wire 1 !! FIFO_MEMORY_reg_64_127_6_8_n_2 $end
$var wire 1 "! FIFO_MEMORY_reg_64_127_9_11_n_0 $end
$var wire 1 #! FIFO_MEMORY_reg_64_127_9_11_n_1 $end
$var wire 1 $! FIFO_MEMORY_reg_64_127_9_11_n_2 $end
$var wire 1 %! FIFO_r_ptr0 $end
$var wire 1 &! \FIFO_r_ptr[0]_i_2_n_0  $end
$var wire 1 '! \FIFO_r_ptr[1]_i_1_n_0  $end
$var wire 1 (! \FIFO_r_ptr[2]_i_1_n_0  $end
$var wire 1 )! \FIFO_r_ptr[3]_i_1_n_0  $end
$var wire 1 *! \FIFO_r_ptr[4]_i_1_n_0  $end
$var wire 1 +! \FIFO_r_ptr[5]_i_1_n_0  $end
$var wire 1 ,! \FIFO_r_ptr[6]_i_1_n_0  $end
$var wire 1 -! \FIFO_r_ptr[6]_i_2_n_0  $end
$var wire 7 .! FIFO_r_ptr__0 [6:0] $end
$var wire 7 /! FIFO_w_ptr [6:0] $end
$var wire 1 0! FIFO_w_ptr0 $end
$var wire 1 1! \FIFO_w_ptr[0]_i_1_n_0  $end
$var wire 1 2! \FIFO_w_ptr[1]_i_1_n_0  $end
$var wire 1 3! \FIFO_w_ptr[2]_i_1_n_0  $end
$var wire 1 4! \FIFO_w_ptr[3]_i_1_n_0  $end
$var wire 1 5! \FIFO_w_ptr[4]_i_1_n_0  $end
$var wire 1 6! \FIFO_w_ptr[5]_i_1_n_0  $end
$var wire 1 7! \FIFO_w_ptr[6]_i_10_n_0  $end
$var wire 1 8! \FIFO_w_ptr[6]_i_2_n_0  $end
$var wire 1 9! \FIFO_w_ptr[6]_i_3_n_0  $end
$var wire 1 :! \FIFO_w_ptr[6]_i_4_n_0  $end
$var wire 1 ;! \FIFO_w_ptr[6]_i_5_n_0  $end
$var wire 1 <! \FIFO_w_ptr[6]_i_6_n_0  $end
$var wire 1 =! \FIFO_w_ptr[6]_i_7_n_0  $end
$var wire 1 >! \FIFO_w_ptr[6]_i_8_n_0  $end
$var wire 1 ?! \FIFO_w_ptr[6]_i_9_n_0  $end
$var wire 1 @! W_fifo_empty $end
$var wire 1 A! W_fifo_empty_OBUF $end
$var wire 1 B! W_fifo_empty_OBUF_inst_i_2_n_0 $end
$var wire 1 C! W_fifo_empty_OBUF_inst_i_3_n_0 $end
$var wire 1 D! W_fifo_full $end
$var wire 1 E! W_fifo_full_OBUF $end
$var wire 1 F! W_fifo_full_OBUF_inst_i_2_n_0 $end
$var wire 1 G! W_fifo_full_OBUF_inst_i_3_n_0 $end
$var wire 1 H! W_fifo_full_OBUF_inst_i_4_n_0 $end
$var wire 1 I! W_fifo_full_OBUF_inst_i_5_n_0 $end
$var wire 1 J! W_fifo_full_OBUF_inst_i_6_n_0 $end
$var wire 1 K! W_fifo_full_OBUF_inst_i_7_n_0 $end
$var wire 1 L! W_fifo_r_en $end
$var wire 1 M! W_fifo_r_en_IBUF $end
$var wire 1 N! W_fifo_read_clk $end
$var wire 1 O! W_fifo_read_clk_IBUF $end
$var wire 1 P! W_fifo_read_clk_IBUF_BUFG $end
$var wire 1 Q! W_fifo_rst $end
$var wire 1 R! W_fifo_rst_IBUF $end
$var wire 1 S! W_fifo_w_en $end
$var wire 1 T! W_fifo_w_en_IBUF $end
$var wire 1 U! W_fifo_write_clk $end
$var wire 1 V! W_fifo_write_clk_IBUF $end
$var wire 1 W! W_fifo_write_clk_IBUF_BUFG $end
$var wire 32 X! in_fifo_WDATA [31:0] $end
$var wire 32 Y! in_fifo_WDATA_IBUF [31:0] $end
$var wire 1 1 in_fifo_WLAST $end
$var wire 1 Z! in_fifo_WLAST_IBUF $end
$var wire 1 [! in_fifo_WREADY $end
$var wire 1 \! in_fifo_WREADY_IBUF $end
$var wire 4 ]! in_fifo_WSTRB [3:0] $end
$var wire 4 ^! in_fifo_WSTRB_IBUF [3:0] $end
$var wire 1 _! in_fifo_WVALID $end
$var wire 1 `! in_fifo_WVALID_IBUF $end
$var wire 32 a! out_fifo_WDATA [31:0] $end
$var wire 1 b! \out_fifo_WDATA[0]_i_1_n_0  $end
$var wire 1 c! \out_fifo_WDATA[10]_i_1_n_0  $end
$var wire 1 d! \out_fifo_WDATA[11]_i_1_n_0  $end
$var wire 1 e! \out_fifo_WDATA[12]_i_1_n_0  $end
$var wire 1 f! \out_fifo_WDATA[13]_i_1_n_0  $end
$var wire 1 g! \out_fifo_WDATA[14]_i_1_n_0  $end
$var wire 1 h! \out_fifo_WDATA[15]_i_1_n_0  $end
$var wire 1 i! \out_fifo_WDATA[16]_i_1_n_0  $end
$var wire 1 j! \out_fifo_WDATA[17]_i_1_n_0  $end
$var wire 1 k! \out_fifo_WDATA[18]_i_1_n_0  $end
$var wire 1 l! \out_fifo_WDATA[19]_i_1_n_0  $end
$var wire 1 m! \out_fifo_WDATA[1]_i_1_n_0  $end
$var wire 1 n! \out_fifo_WDATA[20]_i_1_n_0  $end
$var wire 1 o! \out_fifo_WDATA[21]_i_1_n_0  $end
$var wire 1 p! \out_fifo_WDATA[22]_i_1_n_0  $end
$var wire 1 q! \out_fifo_WDATA[23]_i_1_n_0  $end
$var wire 1 r! \out_fifo_WDATA[24]_i_1_n_0  $end
$var wire 1 s! \out_fifo_WDATA[25]_i_1_n_0  $end
$var wire 1 t! \out_fifo_WDATA[26]_i_1_n_0  $end
$var wire 1 u! \out_fifo_WDATA[27]_i_1_n_0  $end
$var wire 1 v! \out_fifo_WDATA[28]_i_1_n_0  $end
$var wire 1 w! \out_fifo_WDATA[29]_i_1_n_0  $end
$var wire 1 x! \out_fifo_WDATA[2]_i_1_n_0  $end
$var wire 1 y! \out_fifo_WDATA[30]_i_1_n_0  $end
$var wire 1 z! \out_fifo_WDATA[31]_i_1_n_0  $end
$var wire 1 {! \out_fifo_WDATA[31]_i_2_n_0  $end
$var wire 1 |! \out_fifo_WDATA[3]_i_1_n_0  $end
$var wire 1 }! \out_fifo_WDATA[4]_i_1_n_0  $end
$var wire 1 ~! \out_fifo_WDATA[5]_i_1_n_0  $end
$var wire 1 !" \out_fifo_WDATA[6]_i_1_n_0  $end
$var wire 1 "" \out_fifo_WDATA[7]_i_1_n_0  $end
$var wire 1 #" \out_fifo_WDATA[8]_i_1_n_0  $end
$var wire 1 $" \out_fifo_WDATA[9]_i_1_n_0  $end
$var wire 32 %" out_fifo_WDATA_OBUF [31:0] $end
$var wire 1 2 out_fifo_WLAST $end
$var wire 1 &" out_fifo_WLAST_OBUF $end
$var wire 1 '" out_fifo_WLAST_i_1_n_0 $end
$var wire 1 (" out_fifo_WREADY $end
$var wire 1 )" out_fifo_WREADY_OBUF $end
$var wire 1 *" out_fifo_WREADY_OBUF_inst_i_2_n_0 $end
$var wire 1 +" out_fifo_WREADY_OBUF_inst_i_3_n_0 $end
$var wire 1 ," out_fifo_WREADY_OBUF_inst_i_4_n_0 $end
$var wire 1 -" out_fifo_WREADY_OBUF_inst_i_5_n_0 $end
$var wire 1 ." out_fifo_WREADY_OBUF_inst_i_6_n_0 $end
$var wire 1 /" out_fifo_WREADY_OBUF_inst_i_7_n_0 $end
$var wire 4 0" out_fifo_WSTRB [3:0] $end
$var wire 4 1" out_fifo_WSTRB_OBUF [3:0] $end
$var wire 1 2" out_fifo_WVALID $end
$var wire 1 3" out_fifo_WVALID_OBUF $end
$var wire 4 4" p_0_in [3:0] $end
$var wire 1 5" NLW_FIFO_MEMORY_reg_0_63_0_2_DOD_UNCONNECTED $end
$var wire 1 6" NLW_FIFO_MEMORY_reg_0_63_12_14_DOD_UNCONNECTED $end
$var wire 1 7" NLW_FIFO_MEMORY_reg_0_63_15_17_DOD_UNCONNECTED $end
$var wire 1 8" NLW_FIFO_MEMORY_reg_0_63_18_20_DOD_UNCONNECTED $end
$var wire 1 9" NLW_FIFO_MEMORY_reg_0_63_21_23_DOD_UNCONNECTED $end
$var wire 1 :" NLW_FIFO_MEMORY_reg_0_63_24_26_DOD_UNCONNECTED $end
$var wire 1 ;" NLW_FIFO_MEMORY_reg_0_63_27_29_DOD_UNCONNECTED $end
$var wire 1 <" NLW_FIFO_MEMORY_reg_0_63_30_32_DOD_UNCONNECTED $end
$var wire 1 =" NLW_FIFO_MEMORY_reg_0_63_33_35_DOD_UNCONNECTED $end
$var wire 1 >" NLW_FIFO_MEMORY_reg_0_63_36_36_SPO_UNCONNECTED $end
$var wire 1 ?" NLW_FIFO_MEMORY_reg_0_63_3_5_DOD_UNCONNECTED $end
$var wire 1 @" NLW_FIFO_MEMORY_reg_0_63_6_8_DOD_UNCONNECTED $end
$var wire 1 A" NLW_FIFO_MEMORY_reg_0_63_9_11_DOD_UNCONNECTED $end
$var wire 1 B" NLW_FIFO_MEMORY_reg_64_127_0_2_DOD_UNCONNECTED $end
$var wire 1 C" NLW_FIFO_MEMORY_reg_64_127_12_14_DOD_UNCONNECTED $end
$var wire 1 D" NLW_FIFO_MEMORY_reg_64_127_15_17_DOD_UNCONNECTED $end
$var wire 1 E" NLW_FIFO_MEMORY_reg_64_127_18_20_DOD_UNCONNECTED $end
$var wire 1 F" NLW_FIFO_MEMORY_reg_64_127_21_23_DOD_UNCONNECTED $end
$var wire 1 G" NLW_FIFO_MEMORY_reg_64_127_24_26_DOD_UNCONNECTED $end
$var wire 1 H" NLW_FIFO_MEMORY_reg_64_127_27_29_DOD_UNCONNECTED $end
$var wire 1 I" NLW_FIFO_MEMORY_reg_64_127_30_32_DOD_UNCONNECTED $end
$var wire 1 J" NLW_FIFO_MEMORY_reg_64_127_33_35_DOD_UNCONNECTED $end
$var wire 1 K" NLW_FIFO_MEMORY_reg_64_127_36_36_SPO_UNCONNECTED $end
$var wire 1 L" NLW_FIFO_MEMORY_reg_64_127_3_5_DOD_UNCONNECTED $end
$var wire 1 M" NLW_FIFO_MEMORY_reg_64_127_6_8_DOD_UNCONNECTED $end
$var wire 1 N" NLW_FIFO_MEMORY_reg_64_127_9_11_DOD_UNCONNECTED $end
$upscope $end
$upscope $end
$enddefinitions $end
#0
$dumpvars
0!
x!!
x!"
0"
x"!
x""
1#
x#!
x#"
0$
x$!
x$"
0%
0%!
bx %"
x&
x&!
x&"
x'
x'!
x'"
bx (
x(!
x("
bx )
x)!
x)"
0*
x*!
x*"
x+
x+!
x+"
bx ,
x,!
x,"
bx -
x-!
x-"
x.
bx .!
x."
0/
bx /!
x/"
b0 0
00!
bx 0"
z1
x1!
bx 1"
x2
x2!
x2"
b10000000 3
x3!
x3"
b100000 4
x4!
bx 4"
b100 5
x5!
x5"
b100101 6
x6!
x6"
07
x7!
x7"
x8
x8!
x8"
x9
x9!
x9"
x:
x:!
x:"
x;
x;!
x;"
x<
x<!
x<"
x=
x=!
x="
x>
x>!
x>"
x?
x?!
x?"
x@
x@!
x@"
xA
xA!
xA"
xB
xB!
xB"
xC
xC!
xC"
xD
xD!
xD"
xE
xE!
xE"
xF
xF!
xF"
xG
xG!
xG"
xH
xH!
xH"
xI
xI!
xI"
xJ
xJ!
xJ"
xK
xK!
xK"
xL
0L!
xL"
xM
0M!
xM"
xN
0N!
xN"
xO
0O!
xP
0P!
xQ
1Q!
xR
1R!
xS
0S!
xT
0T!
xU
0U!
xV
0V!
xW
0W!
xX
bx X!
xY
bx Y!
xZ
xZ!
x[
0[!
x\
0\!
0]
bx ]!
x^
bx ^!
x_
0_!
x`
0`!
xa
bx a!
xb
xb!
xc
xc!
xd
xd!
xe
xe!
xf
xf!
xg
xg!
xh
xh!
xi
xi!
xj
xj!
xk
xk!
xl
xl!
xm
xm!
xn
xn!
xo
xo!
xp
xp!
xq
xq!
xr
xr!
xs
xs!
xt
xt!
xu
xu!
xv
xv!
xw
xw!
xx
xx!
xy
xy!
xz
0z!
x{
x{!
x|
x|!
x}
x}!
x~
x~!
$end
#100
0!!
0!"
0"!
0""
0#!
0#"
0$!
0$"
0%!
b0 %"
0&
1&!
0&"
1'
0'!
0'"
0(!
1("
0)!
1)"
0*!
0*"
1+
0+!
0+"
b0 ,
0,!
0,"
b0 -
1-!
1-"
0.
b0 .!
1."
b0 /!
0/"
b0 0"
11!
b0 1"
02
02!
02"
03!
03"
04!
b0 4"
05!
05"
06!
06"
07
17!
07"
08
08!
08"
09
09!
09"
0:
0:!
0:"
0;
0;!
0;"
0<
0<!
0<"
0=
1=!
0="
0>
1>!
0>"
0?
0?!
0?"
0@
1@!
0@"
0A
1A!
0A"
0B
1B!
0B"
0C
0C!
0C"
0D
0D!
0D"
0E
0E!
0E"
0F
0F!
0F"
0G
1G!
0G"
0H
0H!
0H"
0I
0I!
0I"
0J
0J!
0J"
0K
0K!
0K"
0L
0L"
0M
0M"
0N
0N"
0O
0P
0Q
0R
0S
0T
0U
0V
0W
0X
0Y
0Z
0[
0\
0]
0^
0_
0`
0a
b0 a!
0b
0b!
0c
0c!
0d
0d!
0e
0e!
0f
0f!
0g
0g!
0h
0h!
0i
0i!
0j
0j!
0k
0k!
0l
0l!
0m
0m!
0n
0n!
0o
0o!
0p
0p!
0q
0q!
0r
0r!
0s
0s!
0t
0t!
0u
0u!
0v
0v!
0w
0w!
0x
0x!
0y
0y!
0z
0{
0{!
0|
0|!
0}
0}!
0~
0~!
#5000
1!
1U!
1V!
1W!
#6000
1"
1N!
1O!
1P!
#10000
0!
0U!
0V!
0W!
#12000
0"
0N!
0O!
0P!
#15000
1!
1U!
1V!
1W!
#18000
1"
1N!
1O!
1P!
#20000
0!
0#
07
0Q!
0R!
0U!
0V!
0W!
0]
#24000
0"
0N!
0O!
0P!
#25000
1!
1$
b10010000101010011010100100100 (
b1 )
1*
10!
17
1S!
1T!
1U!
1V!
1W!
b10010000101010011010100100100 X!
b10010000101010011010100100100 Y!
0]
b1 ]!
b1 ^!
1_!
1`!
#30000
0!
1"
1N!
1O!
1P!
0U!
0V!
0W!
#35000
1!
0$
0*
b1 0
00!
07
0S!
0T!
1U!
1V!
1W!
0]
0_!
0`!
#35100
1#"
x'"
b1 4"
1:
1;
1<
x>"
1?
1A
1C
1H
1K
1O
xS
1V
1Y
1[
1c!
1e!
1f!
1i!
1k!
1n!
1s!
1v!
1x!
1~!
#36000
0"
0N!
0O!
0P!
#40000
0!
0U!
0V!
0W!
#42000
1"
1%
0%!
1/
1L!
1M!
1N!
1O!
1P!
1[!
1\!
#45000
1!
1$
b10000100100001001101011000001001 (
b11 )
1*
10!
17
1S!
1T!
1U!
1V!
1W!
b10000100100001001101011000001001 X!
b10000100100001001101011000001001 Y!
0]
b11 ]!
b11 ^!
1_!
1`!
#48000
0"
0N!
0O!
0P!
#50000
0!
0U!
0V!
0W!
#54000
1"
0%
0%!
0/
0L!
0M!
1N!
1O!
1P!
0[!
0\!
#55000
1!
0$
0*
b10 0
00!
07
0S!
0T!
1U!
1V!
1W!
0]
0_!
0`!
#55100
0#"
1$"
b11 4"
18
0:
0<
1=
1>
0?
0C
1F
0H
1I
0K
1N
1P
1T
0V
0Y
1Z
1b!
0f!
1g!
1h!
0i!
0n!
1q!
0s!
1t!
0v!
0x!
1{!
1|!
0~!
#60000
0!
0"
0N!
0O!
0P!
0U!
0V!
0W!
#65000
1!
1$
b110101110010111101100001101 (
b1101 )
1*
10!
17
1S!
1T!
1U!
1V!
1W!
b110101110010111101100001101 X!
b110101110010111101100001101 Y!
0]
b1101 ]!
b1101 ^!
1_!
1`!
#66000
1"
1%
0%!
1/
1L!
1M!
1N!
1O!
1P!
1[!
1\!
#70000
0!
0U!
0V!
0W!
#72000
0"
0N!
0O!
0P!
#75000
1!
0$
0*
b11 0
00!
07
0S!
0T!
1U!
1V!
1W!
0]
0_!
0`!
#75100
1#"
b1101 4"
1:
1<
0>
1?
0A
1B
1C
1D
1H
0N
0P
1Q
1R
1Y
0[
1\
0c!
1d!
1f!
0h!
1i!
0k!
1l!
1n!
1o!
1s!
1x!
0{!
#78000
1"
0%
0%!
0/
0L!
0M!
1N!
1O!
1P!
0[!
0\!
#80000
0!
0U!
0V!
0W!
#84000
0"
0N!
0O!
0P!
#85000
1!
1$
b10110010110000101000010001100101 (
b10 )
1*
10!
17
1S!
1T!
1U!
1V!
1W!
b10110010110000101000010001100101 X!
b10110010110000101000010001100101 Y!
0]
b10 ]!
b10 ^!
1_!
1`!
#90000
0!
1"
1%
0%!
1/
1L!
1M!
1N!
1O!
1P!
0U!
0V!
0W!
1[!
1\!
#95000
1!
0$
0*
b100 0
00!
07
0S!
0T!
1U!
1V!
1W!
0]
0_!
0`!
#95100
1!"
0#"
0$"
b10 4"
0;
0<
0=
1>
0?
1@
0B
0C
0D
1E
0I
1K
1L
1N
0O
1P
0Q
0R
0T
1V
1W
0Y
0Z
1[
0\
1c!
0d!
0e!
0f!
0g!
1h!
0i!
1j!
0l!
0n!
0o!
1p!
0t!
1v!
1w!
1{!
0|!
1~!
#96000
0"
0N!
0O!
0P!
#100000
0!
0U!
0V!
0W!
#102000
1"
0%
0%!
0/
0L!
0M!
1N!
1O!
1P!
0[!
0\!
#105000
1!
1$
b111100111110001100000001 (
b1101 )
1*
10!
17
1S!
1T!
1U!
1V!
1W!
b111100111110001100000001 X!
b111100111110001100000001 Y!
0]
b1101 ]!
b1101 ^!
1_!
1`!
#108000
0"
0N!
0O!
0P!
#110000
0!
0U!
0V!
0W!
#114000
1"
1%
0%!
1/
1L!
1M!
1N!
1O!
1P!
1[!
1\!
#115000
1!
0$
0*
b101 0
00!
07
0S!
0T!
1U!
1V!
1W!
0]
0_!
0`!
#115100
0!"
1#"
1$"
1%!
0'
1.
b1 /!
01!
12!
12"
03!
13"
b1101 4"
05"
06"
07"
08"
09"
0:
0:"
0;"
1<
0<"
1=
0="
0>"
1?
0?"
0@!
0@"
0A!
0A"
0B!
0B"
1C
0C"
1D
0D"
0E"
0F"
0G"
0H
0H"
0I"
0J"
0K
0K"
0L
0L"
0M"
0N
0N"
1O
0P
1Q
1R
0V
0W
1Y
1Z
0[
0c!
1f!
1g!
1i!
1n!
1o!
0s!
0v!
0w!
0x!
1z!
0{!
0~!
#120000
0!
0"
0N!
0O!
0P!
0U!
0V!
0W!
#125000
1!
1$
b111011001000111111000101110110 (
b1101 )
1*
10!
17
1S!
1T!
1U!
1V!
1W!
b111011001000111111000101110110 X!
b111011001000111111000101110110 Y!
0]
1_!
1`!
#126000
1"
0%
0%!
0/
0L!
0M!
1N!
1O!
1P!
0[!
0\!
0z!
#126100
0!!
0"!
0#!
0#"
0$!
0$"
0%!
b111100111110001100000001 %"
0&!
x&"
1'
1'!
0'"
0(!
b111100111110001100000001 ,
b1101 -
0.
b1 .!
b1101 0"
b1101 1"
x2
02"
03"
b0 4"
08
09
0:
0;
0<
0=
0>
0?
0@
1@!
0A
1A!
0B
1B!
0C
0D
0E
0F
0G
0H
0I
0J
0K
0L
0M
0N
0O
0P
0Q
0R
0S
0T
0U
0V
0W
0X
0Y
0Z
0[
0\
0^
0_
0`
0a
b111100111110001100000001 a!
0b
0b!
0c
0d
0e
0f
0f!
0g
0g!
0h
0h!
0i
0i!
0j
0j!
0k
0l
0m
0n
0n!
0o
0o!
0p
0p!
0q
0q!
0r
0s
0t
0u
0v
0w
0x
0y
0z
0{
0|
0}
0~
#130000
0!
0U!
0V!
0W!
#132000
0"
0N!
0O!
0P!
#135000
1!
0$
0*
b110 0
00!
07
0S!
0T!
1U!
1V!
1W!
0]
0_!
0`!
#135100
1!"
1#"
0%!
0'
x'"
1.
0."
b10 /!
11!
12!
12"
03!
13"
b1101 4"
05"
06"
07"
08"
19
09"
1:
0:"
1;
0;"
1<
0<"
1=
1=!
0="
1>
0>"
1?
0?"
1@
0@!
0@"
0A!
0A"
0B!
0B"
0C"
1D
0D"
0E"
0F"
1G
1G!
0G"
1H
0H"
0I"
1J
0J"
1K
1K!
0K"
1L
0L"
0M"
0N"
1O
1Q
1R
xS
1U
1V
1W
1Y
1e!
1f!
1g!
1h!
1i!
1j!
1m!
1o!
1r!
1s!
1u!
1v!
1w!
1x!
1}!
1~!
#138000
1"
1%
1%!
1/
1L!
1M!
1N!
1O!
1P!
1[!
1\!
1z!
#140000
0!
0U!
0V!
0W!
#144000
0"
0N!
0O!
0P!
#145000
1!
1$
b1110110110101000101011111101101 (
b1100 )
1*
10!
17
1S!
1T!
1U!
1V!
1W!
b1110110110101000101011111101101 X!
b1110110110101000101011111101101 Y!
0]
b1100 ]!
b1100 ^!
1_!
1`!
#150000
0!
1"
0%
0%!
0/
0L!
0M!
1N!
1O!
1P!
0U!
0V!
0W!
0[!
0\!
0z!
#150100
0!!
0!"
0"!
0#!
0#"
0$!
0%!
b111011001000111111000101110110 %"
1&!
1'
1'!
0'"
0(!
b111011001000111111000101110110 ,
0.
b10 .!
02"
03"
b0 4"
08
09
0:
0;
0<
0=
0>
0?
0@
1@!
0A
1A!
0B
1B!
0C
0D
0E
0F
0G
0H
0I
0J
0K
0K!
0L
0M
0N
0O
0P
0Q
0R
0S
0T
0U
0V
0W
0X
0Y
0Z
0[
0\
0^
0_
0`
0a
b111011001000111111000101110110 a!
0b
0c
0d
0e
0e!
0f
0f!
0g
0g!
0h
0h!
0i
0i!
0j
0j!
0k
0l
0m
0m!
0n
0o
0o!
0p
0q
0r
0r!
0s
0s!
0t
0u
0u!
0v
0v!
0w
0w!
0x
0x!
0y
0z
0{
0|
0}
0}!
0~
0~!
#155000
1!
0$
0*
b111 0
00!
07
0S!
0T!
1U!
1V!
1W!
0]
0_!
0`!
#155100
1!"
1""
1#"
1$"
0%!
0'
x'"
1.
b11 /!
01!
02!
12"
13!
13"
b1100 4"
05"
06"
07"
18
08"
09"
1:
0:"
1;
0;"
0<"
1=
0="
0>"
0?"
0@!
0@"
1A
0A!
0A"
0B!
0B"
1C
0C"
0D"
1E
0E"
1F
1F!
0F"
0G"
1H
0H"
1I
0I"
0J"
1K
0K"
1L
0L"
1M
0M"
0N"
1Q
1R
xS
1T
1V
1W
1X
1Y
1Z
1[
1b!
1c!
1e!
1g!
1k!
1n!
1p!
1q!
1s!
1t!
1v!
1w!
1x!
1y!
1|!
1~!
#156000
0"
0N!
0O!
0P!
#160000
0!
0U!
0V!
0W!
#162000
1"
1%
1%!
1/
1L!
1M!
1N!
1O!
1P!
1[!
1\!
1z!
#165000
1!
1$
b1111100111111011110100111111001 (
b110 )
1*
10!
17
1S!
1T!
1U!
1V!
1W!
b1111100111111011110100111111001 X!
b1111100111111011110100111111001 Y!
0]
b110 ]!
b110 ^!
1_!
1`!
#168000
0"
0N!
0O!
0P!
#170000
0!
0U!
0V!
0W!
#174000
1"
0%
0%!
0/
0L!
0M!
1N!
1O!
1P!
0[!
0\!
0z!
